%YAML 1.1
%TAG !u! tag:unity3d.com,2011:
--- !u!1045 &1
EditorBuildSettings:
  m_ObjectHideFlags: 0
  serializedVersion: 2
  m_Scenes:
  - enabled: 1
    path: Assets/Scenes/0_Persistent.unity
    guid: 8c9c0c0c4c49a5d4c830e9624eef4731
  - enabled: 1
    path: Assets/Scenes/1_MainMenu.unity
    guid: 6b8e1257cb893cb4782f091df82127f1
  - enabled: 1
    path: Assets/Scenes/Levels/2A_RingToss.unity
    guid: bcee24b3b52d3d942a5c77edcc0488ee
  - enabled: 1
    path: Assets/Scenes/Levels/2B_Flowers.unity
    guid: 4c6d931b2c6f3fb43aa101784bbdd6c9
  - enabled: 1
    path: Assets/Scenes/Levels/2C_SimonSays.unity
    guid: ec4ed1f1b7a491a438d939abadbd308c
  - enabled: 1
    path: Assets/Scenes/Levels/2D_Soccer.unity
    guid: e74c3767d30b407449e262d7e719d401
  - enabled: 1
    path: Assets/Scenes/Levels/2E_SavePigs.unity
    guid: 35083dc7254c54f47a94165e85730ac6
  - enabled: 1
    path: Assets/Scenes/Levels/2F_Cooking.unity
    guid: bcf632fa1f52f0c448b12012029e63b7
  - enabled: 1
    path: Assets/Scenes/Levels/2G_ThrowingKnives.unity
    guid: 02f419f0807ac7e46b38f5d54855094e
  - enabled: 1
    path: Assets/Scenes/Levels/2H_Billards.unity
    guid: 2aa8abcd16f887a419868a8afbb3cc17
  m_configObjects: {}
